<svg width="496" height="500" viewBox="0 0 496 500" fill="none" xmlns="http://www.w3.org/2000/svg">
<path d="M140.343 376.221C146.61 381.998 153.954 386.698 161.298 391.007C165.018 393.063 168.837 394.825 172.852 396.196C176.866 397.567 180.979 398.742 185.091 400.113C187.147 400.798 189.204 401.484 191.26 402.169C192.337 402.561 193.316 402.953 194.295 403.344L195.862 403.932L197.331 404.617C201.345 406.478 205.164 408.534 208.885 410.884C216.327 415.486 223.279 420.871 229.937 426.453C236.595 432.034 242.862 437.909 249.324 443.588L258.92 452.205L263.718 456.513C265.285 457.982 266.949 459.45 268.614 461.017C271.943 464.248 275.37 468.067 277.72 473.159C278.895 475.607 279.679 477.957 280.364 479.817C281.049 481.775 281.735 483.342 282.42 484.517C282.714 485.105 283.204 485.496 283.497 485.986C283.987 486.377 284.281 486.867 284.868 487.259C285.358 487.65 285.945 487.944 286.435 488.336C286.729 488.532 287.022 488.63 287.316 488.825L287.806 489.021L288.295 489.217C290.841 490.294 294.072 490.686 297.401 490.686C299.066 490.588 300.731 490.49 302.395 490.196C303.276 490.098 304.06 489.805 304.843 489.707C305.626 489.413 306.41 489.315 307.291 488.923C310.816 487.748 314.439 486.279 318.258 484.615C322.076 482.95 326.189 481.09 330.693 479.425C332.945 478.544 335.295 477.859 337.743 477.173L339.603 476.684L341.562 476.292C342.835 475.998 344.108 475.802 345.283 475.705C347.633 475.411 349.787 475.215 351.549 474.921C352.431 474.823 353.214 474.627 353.899 474.432C354.585 474.236 355.172 474.04 355.858 473.844C358.403 472.963 360.949 471.396 363.593 469.34C368.881 465.13 374.07 458.667 380.533 452.009C387.191 445.252 394.437 439.378 401.878 434.188C409.32 428.998 416.958 424.396 424.399 420.088C431.841 415.682 439.185 411.569 446.235 407.163C453.187 402.757 459.845 398.253 465.72 393.161C467.189 391.888 468.56 390.615 470.028 389.342C470.812 388.657 471.301 388.167 471.889 387.482C472.476 386.894 473.064 386.209 473.553 385.621C475.805 383.076 477.764 380.236 479.232 377.494C480.701 374.655 481.68 371.815 482.072 369.465C482.464 367.017 482.17 365.255 481.582 363.982C481.289 363.296 480.799 362.611 480.212 362.023C479.624 361.436 478.939 360.751 477.862 360.065C475.805 358.694 472.574 357.323 468.657 355.855C466.699 355.071 464.643 354.288 462.293 353.211C461.216 352.721 459.943 352.134 458.768 351.644C457.495 350.959 456.32 350.371 455.047 349.588C449.955 346.553 445.255 342.44 441.535 337.74C437.716 333.138 434.974 327.948 432.918 322.661C430.862 317.471 429.491 312.086 428.708 306.799C427.924 301.511 427.728 296.224 427.924 290.936C428.022 288.292 428.316 285.649 428.61 283.103L429.197 279.186C429.393 277.913 429.687 276.738 429.98 275.465C431.058 270.569 432.33 265.967 433.799 261.463C435.268 256.959 436.835 252.749 438.401 248.636C439.968 244.524 441.535 240.607 443.003 236.788C443.689 234.928 444.374 232.969 445.451 231.305C446.039 230.424 446.626 229.64 447.214 228.857C447.801 228.074 448.487 227.29 449.074 226.409C449.662 225.626 450.249 224.744 450.641 223.961C451.033 223.08 451.424 222.199 451.718 221.317L453.285 216.03C453.676 214.267 454.068 212.407 454.362 210.547C454.655 208.686 454.851 206.826 455.047 204.965C455.635 197.524 455.243 189.984 454.46 182.542C452.893 167.561 448.487 152.678 440.947 139.263C439.968 137.599 438.989 135.934 437.912 134.368L434.583 129.668C432.233 126.534 429.393 123.205 426.651 119.582C425.28 117.82 423.812 115.861 422.441 113.903C421.07 111.847 419.699 109.693 418.524 107.343C416.174 102.643 414.118 97.2572 413.824 91.4801C413.53 85.703 414.51 80.3176 415.978 75.6176C416.664 73.2676 417.447 71.0155 418.328 68.8614C419.112 66.7072 419.993 64.6509 420.776 62.5947C424.008 54.6635 426.945 46.6343 430.176 38.6052C430.96 36.5489 431.743 34.6885 432.33 32.926C432.918 31.1635 433.505 29.4989 433.799 28.0302C433.995 27.3448 434.191 26.5614 434.289 25.876C434.387 25.5823 434.68 25.2885 434.583 24.8968C434.485 24.6031 434.387 24.3093 434.289 23.9177C433.995 23.3302 433.603 22.8406 433.212 22.4489C433.016 22.2531 432.82 22.0573 432.722 21.8614C432.526 21.6656 432.33 21.4698 432.233 21.2739C432.135 21.176 432.135 21.0781 432.135 20.9802L431.939 20.6864C431.841 20.4906 431.743 20.2948 431.547 20.0989C431.253 19.7073 431.058 19.3156 430.568 19.0218C429.883 18.2385 429.001 17.5531 428.022 16.8677C425.966 15.5948 423.42 14.4198 420.678 13.9302C419.308 13.6364 417.937 13.5385 416.664 13.4406C415.489 13.4406 413.824 13.4406 412.258 13.7344C409.124 14.0281 405.697 14.8114 402.074 15.7906C398.451 16.7698 394.633 18.0427 390.422 19.4135C388.366 20.0989 386.114 20.6864 383.862 21.3718C381.61 22.0573 379.26 22.5468 376.91 23.1343C367.51 25.1906 358.11 26.3656 348.906 26.8552C339.701 27.3448 330.791 27.2468 322.174 26.9531L309.445 26.4635C307.389 26.3656 305.235 26.2677 303.179 26.1698C301.122 26.0718 299.066 26.0718 297.01 25.5823C294.954 25.0927 292.897 24.2114 290.939 23.1343L287.904 21.3718C286.826 20.7843 285.847 20.1968 284.77 19.6093C282.714 18.5323 280.56 17.651 278.504 17.1614C277.426 16.9656 276.447 16.7698 275.37 16.6719C274.293 16.5739 273.314 16.476 272.237 16.476C270.181 16.476 268.124 16.3781 266.068 16.5739C265.089 16.6719 264.012 16.6719 263.033 16.7698C262.054 16.8677 260.977 17.0635 259.997 17.1614C255.885 17.7489 251.968 18.7281 247.954 20.001C245.995 20.5885 244.037 21.2739 242.079 21.9593C240.12 22.6448 238.26 23.4281 236.302 24.1135C234.441 24.8968 232.483 25.6802 230.622 26.5614C228.762 27.4427 226.902 28.3239 225.139 29.3031C217.893 33.1218 211.235 37.9197 204.968 43.0114C201.835 45.5572 198.8 48.201 195.862 50.8447C194.491 52.1176 193.316 53.2926 192.337 54.3697C191.456 55.4468 190.77 56.328 190.379 57.1114C190.183 57.503 190.085 57.7968 189.889 58.1885C189.791 58.5801 189.595 59.0697 189.497 59.6572C189.302 60.7343 189.008 62.203 188.812 63.9655L188.42 66.7072C188.322 67.1968 188.322 67.6864 188.225 68.2739L187.931 69.7426C187.539 71.7009 187.147 73.7572 186.756 75.8134C186.462 77.8697 186.07 80.0238 185.875 82.178C185.679 84.3322 185.581 86.4863 185.679 88.6405C185.777 92.9488 186.658 97.1592 187.147 101.468C188.225 110.084 189.4 118.799 189.106 128.003V129.765L189.008 131.528C188.91 132.703 188.812 133.78 188.616 135.151L188.518 136.13L188.322 137.109L188.127 138.088L187.735 139.263C187.637 139.655 187.539 139.949 187.343 140.438C187.147 140.83 186.952 141.32 186.756 141.711C186.56 142.103 186.168 142.592 185.875 142.984C185.581 143.376 185.189 143.865 184.797 144.257C184.308 144.649 183.916 145.04 183.427 145.334C182.937 145.628 182.447 145.922 181.86 146.215C180.881 146.607 179.804 146.901 179.02 146.999C177.258 147.292 175.887 147.293 174.614 147.293C172.166 147.195 170.11 146.999 168.054 146.901L161.689 146.705C159.633 146.607 157.675 146.607 155.912 146.705C154.15 146.803 152.583 147.097 151.31 147.586C150.037 148.076 149.156 148.663 148.275 149.447C148.079 149.643 147.883 149.838 147.687 150.132C147.491 150.328 147.295 150.622 147.198 150.817C146.806 151.307 146.512 151.992 146.12 152.678C145.435 154.147 144.75 155.909 143.966 157.965C143.575 159.042 143.085 160.12 142.595 161.197C142.106 162.274 141.518 163.351 141.029 164.428C139.952 166.582 138.679 168.638 137.406 170.695C132.118 178.724 125.166 185.774 116.941 191.159C112.829 193.803 108.423 196.153 103.821 197.817C99.2184 199.58 94.6164 200.853 90.1122 201.734C85.5101 202.615 81.006 203.301 76.5997 203.692C72.1935 204.182 67.8851 204.476 63.6747 204.867C59.4643 205.259 55.4497 205.553 51.5331 206.14C47.6164 206.728 43.7977 207.511 40.0769 208.588C36.4539 209.665 32.929 210.938 29.6977 212.603C26.4665 214.267 23.529 216.226 21.081 218.576C19.8081 219.751 18.6331 221.024 17.5561 222.394C16.479 223.863 15.4019 225.332 14.4227 226.997C12.4644 230.228 10.7019 233.655 9.33106 237.18C8.05815 240.705 7.07899 244.328 6.78524 247.755C6.78524 248.636 6.68732 249.419 6.68732 250.301L6.78524 251.476V252.063L6.88315 252.651L7.07899 253.826C7.1769 254.217 7.27482 254.511 7.37273 254.903C7.56857 255.588 7.86232 256.372 8.25398 257.057C8.3519 257.449 8.64565 257.84 8.84148 258.134L9.5269 259.309C10.0165 260.092 10.5061 260.778 11.0936 261.561C12.2686 263.03 13.5415 264.499 14.9123 265.967C17.654 268.807 20.7873 271.549 24.0185 274.192C27.2498 276.836 30.6769 279.48 34.006 282.319C34.8873 283.005 35.6706 283.69 36.5519 284.474L37.8248 285.551L38.9998 286.628L43.6998 290.936C50.0643 296.713 56.331 302.588 62.6956 308.267L81.7893 325.501L101.079 342.538C114.004 354.386 127.223 365.255 140.343 376.221ZM140.245 376.319C112.633 355.855 86.9789 333.138 60.6393 311.205L41.056 294.559C37.7269 291.817 34.5935 288.978 31.1665 286.334C27.7394 283.788 24.3123 281.242 20.8852 278.696C17.4581 276.151 14.129 273.409 10.8977 270.471C9.33106 269.003 7.86232 267.436 6.39357 265.772C5.70815 264.988 5.02274 264.009 4.43524 263.226C3.84774 262.344 3.26024 261.463 2.77066 260.484C0.616493 256.665 -0.166838 252.161 0.0289946 247.853C0.224828 243.544 1.10608 239.236 2.47691 235.222C3.84774 231.109 5.61024 227.192 7.7644 223.472C8.84148 221.611 10.0165 219.849 11.2894 218.086C12.5623 216.324 13.9331 214.757 15.4998 213.19C21.5706 207.119 29.5019 203.105 37.7269 200.657C45.9518 198.111 54.4706 197.034 62.9893 196.251C71.5081 195.37 80.0268 194.782 88.4476 193.117C92.658 192.334 96.7705 191.159 100.785 189.69C104.8 188.222 108.716 186.361 112.339 184.011C119.585 179.507 125.95 173.436 130.845 166.484C133.293 162.959 135.448 159.238 137.112 155.322C137.993 153.363 138.777 151.405 139.854 149.545C140.931 147.684 142.204 145.922 143.868 144.551C145.533 143.18 147.393 142.103 149.45 141.515C151.506 140.928 153.66 140.732 155.814 140.634C157.968 140.634 160.123 140.732 162.277 140.83L168.641 141.32C170.795 141.515 172.95 141.809 175.006 141.907C176.083 141.907 177.16 142.005 178.237 141.809C179.314 141.613 180.391 141.32 181.077 140.536C181.86 139.753 182.35 138.872 182.741 137.795L183.035 137.011L183.231 136.228C183.329 135.738 183.427 135.151 183.525 134.661C183.72 133.584 183.818 132.507 183.916 131.43L184.014 129.863L184.112 128.297C184.308 123.988 184.112 119.68 183.72 115.47C183.329 111.161 182.839 106.951 182.252 102.74C181.077 94.2217 179.608 85.8009 178.629 77.2822C178.139 72.9739 177.845 68.7634 177.845 64.4551C177.845 60.2447 178.335 55.8385 180.489 52.0197C182.545 48.2989 185.875 45.3614 189.204 42.7177C190.868 41.4447 192.631 40.1718 194.393 38.8989C196.156 37.626 197.918 36.451 199.681 35.276C206.829 30.576 214.368 26.4635 222.202 22.9385C237.77 15.8885 254.514 11.2864 271.552 9.32811C288.589 7.4677 305.822 8.25103 322.86 8.83853C339.995 9.42603 357.228 9.8177 374.168 6.97812C382.687 5.7052 390.814 3.06146 399.235 1.49479C403.445 0.71146 407.655 0.123961 411.964 0.0260445C414.118 -0.071872 416.272 0.12396 418.328 0.319793C420.483 0.613543 422.539 1.00521 424.595 1.69063C428.708 2.96354 432.526 5.01979 435.855 7.66353C437.52 9.03436 438.989 10.601 440.262 12.3635C440.947 13.2448 441.437 14.126 441.926 15.1052C442.122 15.5948 442.318 16.0844 442.612 16.5739L442.905 17.3573L443.101 18.1406C443.297 18.6302 443.395 19.1198 443.591 19.7073L443.885 21.2739C444.08 22.351 444.08 23.4281 444.178 24.5052C444.178 26.6593 443.885 28.8135 443.297 30.8697C442.22 35.0802 440.555 38.9968 438.793 42.9135L428.512 66.5114C426.847 70.428 425.085 74.3447 423.91 78.4572C422.735 82.5697 421.951 86.878 422.343 91.0884C422.441 92.1655 422.637 93.2426 422.833 94.2217L423.224 95.7884C423.322 96.278 423.518 96.8655 423.714 97.3551C424.399 99.4113 425.28 101.37 426.358 103.23C428.512 106.951 431.155 110.378 433.897 113.609C436.737 116.84 439.674 119.974 442.416 123.205L446.43 128.199C447.703 129.863 448.878 131.724 450.151 133.388C459.649 147.586 465.818 164.036 468.266 181.074C470.714 198.013 469.343 215.54 463.86 231.794C458.572 248.147 450.445 263.422 446.235 280.067C445.941 281.144 445.745 282.124 445.451 283.201L444.864 286.334C444.57 288.488 444.178 290.544 444.08 292.699C443.787 297.007 443.689 301.217 444.178 305.526C444.668 309.736 445.549 314.044 446.92 318.059C448.291 322.073 450.249 325.99 452.893 329.417C455.439 332.844 458.67 335.782 462.293 338.034C465.916 340.286 469.93 341.951 473.847 343.615C477.764 345.28 481.778 347.042 485.303 349.49C488.828 351.938 491.864 355.267 493.43 359.184C495.095 363.198 495.389 367.605 494.605 371.815C493.92 376.026 492.255 380.138 490.297 383.859C488.241 387.58 485.695 391.105 482.855 394.336C480.016 397.567 476.687 400.309 473.455 403.148C466.895 408.632 459.747 413.43 452.403 417.934C445.06 422.438 437.618 426.648 430.176 430.859C422.735 435.167 415.391 439.475 408.341 444.371C401.291 449.169 394.535 454.555 388.464 460.625C382.393 466.696 377.008 473.355 370.153 478.642C366.726 481.188 363.006 483.44 358.893 484.713C354.781 486.084 350.472 486.182 346.164 486.671C337.547 487.552 329.616 490.882 321.685 494.113C317.67 495.679 313.754 497.246 309.543 498.421C305.431 499.596 301.122 500.086 296.814 499.988C292.506 499.792 288.197 499.009 284.379 497.148L283.693 496.854L283.008 496.463C282.518 496.169 282.029 495.973 281.637 495.582C280.756 494.896 279.874 494.309 279.091 493.525C278.308 492.84 277.622 491.959 276.937 491.175C276.349 490.294 275.664 489.413 275.272 488.434C273.314 484.615 272.629 480.307 270.964 476.39C269.299 472.473 266.558 469.046 263.62 465.913C260.683 462.78 257.549 459.842 254.514 456.807L245.408 447.798C239.337 441.825 233.266 435.657 226.999 429.88C220.733 424.005 214.172 418.521 207.122 413.723C200.072 408.925 192.337 405.009 184.21 402.267C180.195 400.798 176.083 399.525 172.068 397.959C168.054 396.392 164.235 394.532 160.514 392.28C156.793 390.028 153.366 387.58 149.939 384.936C146.904 381.803 143.575 379.061 140.245 376.319Z" fill="black"/>
</svg>
